<svg width="22" height="16" viewBox="0 0 22 16" fill="none" xmlns="http://www.w3.org/2000/svg">
<path fill-rule="evenodd" clip-rule="evenodd" d="M21.2398 8.00564C21.2398 7.83476 21.1694 7.67156 21.0522 7.54868L14.7169 1.14932C14.4666 0.896521 14.0615 0.897161 13.8119 1.14932C13.5617 1.40148 13.5617 1.81108 13.8119 2.06324L19.0554 7.35924H1.39977C1.04649 7.35924 0.759766 7.64852 0.759766 8.00564C0.759766 8.36276 1.04649 8.65204 1.39977 8.65204H19.0548L13.8119 13.948C13.5617 14.2002 13.5623 14.6098 13.8119 14.862C14.0622 15.1141 14.4673 15.1141 14.7169 14.862L21.0522 8.4626C21.1719 8.34164 21.2378 8.17524 21.2398 8.00564Z" fill="#333333"/>
</svg>
